Data visualization
…
## Rows: 5369 Columns: 5

## -- Column specification --------------------------------------------------------
## Delimiter: ","
## chr  (3): Vaccine, Gender, Age group
## dbl  (1): Number of infected
## date (1): Date

## 
## i Use `spec()` to retrieve the full column specification for this data.
## i Specify the column types or set `show_col_types = FALSE` to quiet this message.

test

## # A tibble: 5,369 x 5
##    Date       Vaccine Gender `Age group` `Number of infected`
##    <date>     <chr>   <chr>  <chr>                      <dbl>
##  1 2021-01-01 -       -      -                              0
##  2 2021-01-02 -       -      -                              0
##  3 2021-01-03 -       -      -                              0
##  4 2021-01-04 -       -      -                              0
##  5 2021-01-05 -       -      -                              0
##  6 2021-01-06 -       -      -                              0
##  7 2021-01-07 -       -      -                              0
##  8 2021-01-08 -       -      -                              0
##  9 2021-01-09 -       -      -                              0
## 10 2021-01-10 -       -      -                              0
## # ... with 5,359 more rows
…
